LAMMPS Description

27  atoms
0  bonds
0  angles
0  dihedrals
0  impropers

3  atom types

-10.0 10.0 xlo xhi
-10.0 10.0 ylo yhi
-10.0 10.0 zlo zhi

Masses

1  10.0  # A, inert
2  10.0  # B, center
3  10.0  # C, virtual

Atoms

1 1 2 0.0000  0.0    0.0   0.0
2 1 1 0.0000  2.56   1.5   0.0
3 1 1 0.0000  2.56  -1.5   0.0
4 1 1 0.0000  -2.56   1.5   0.0
5 1 1 0.0000  -2.56  -1.5   0.0
6 1 1 0.0000  0   3.0   0.0
7 1 1 0.0000  0  -3.0   0.0
8 1 1 0.0000  0.0    0.0   -2.0
9 1 1 0.0000  2.56   1.5   -2.0
10 1 1 0.0000  2.56  -1.5   -2.0
11 1 1 0.0000  -2.56   1.5   -2.0
12 1 1 0.0000  -2.56  -1.5   -2.0
13 1 1 0.0000  0   3.0   -2.0
14 1 1 0.0000  0  -3.0   -2.0
15 1 1 0.0000  0.0    0.0   2.0
16 1 1 0.0000  2.56   1.5   2.0
17 1 1 0.0000  2.56  -1.5   2.0
18 1 1 0.0000  -2.56   1.5   2.0
19 1 1 0.0000  -2.56  -1.5   2.0
20 1 1 0.0000  0   3.0   2.0
21 1 1 0.0000  0  -3.0   2.0
22 1 3 0.0000  6.12   0.0   0.0
23 1 3 0.0000  3.05   5.37   0.0 
24 1 3 0.0000  3.05  -5.37   0.0
25 1 3 0.0000 -6.12   0.0   0.0
26 1 3 0.0000 -3.05   5.37   0.0
27 1 3 0.0000 -3.05  -5.37   0.0

